% \draw
  % [very thin,
   % color=gray,
   % step=0.2cm]
  % (-4,0) grid (4,1);

\draw
  [thick,
   color=red,
   samples=2,
   domain=0:4]
  plot (\x,{0.5 * \x})
  node[above right]
  {$\vec{\mathcal{W}}^{(1)}$};

\draw
  [thick,
   color=blue,
   samples=2,
   domain=-1:0]
  plot (\x,{-2 * \x});

\node[above,blue] at (-1,2) {$\vec{\mathcal{W}}^{(2)}$};

\node at (-2,1.5) {$\vec{q}_{l}$};
\node at (1,1.5) {$\vec{q}_{*}$};
\node at (4,1.5) {$\vec{q}_{r}$};

\draw
  [->]
  (-3.2,0) -- (5.2,0)
  node[right]
  {$x$};

\draw
  [->]
  (-3.2,0) -- (-3.2,2.2)
  node[above]
  {$t$};

% \clip
  % (-4.2,0) rectangle (4.2,4.2);

\draw (0,0.1) -- (0,-0.1) node[below] {$0$};

\draw
  [dashed]
  (-0.5,1) -- (-0.5,-5);

\draw
  [dashed]
  (2,1) -- (2,-5);

\draw
  [dashed]
  (-3.2,1) -- (5,1);

% -----------------------------------------------------------------------------

\draw
  [->]
  (-3.2,-5) -- (5.2,-5)
  node[right]
  {$x$};

\draw
  [->]
  (-3.2,-5) -- (-3.2,-0.8)
  node[above]
  {$q^{(1)}(x, t)$};

\draw (0,-4.9) -- (0,-5.1) node[below] {$0$};

\draw (-3.3,-2) -- (-3.1,-2) node[left] {$q_{l}^{(1)}$};

\draw (-3.3,-3) -- (-3.1,-3) node[left] {$q_{r}^{(1)}$};

\draw (-3.3,-4) -- (-3.1,-4) node[left] {$q_{*}^{(1)}$};

\draw [thick] (-3.2,-2) --
              (-0.5,-2) --
              (-0.5,-4) --
              (2,-4)    --
              (2,-3)    -- (5,-3);

\draw
  [->]
  (2.2,-3.5) -- (2.4,-3.5)
  node[right]
  {$\lambda^{(1)}$};

\draw
 [->]
  (-0.7,-3) -- (-0.9,-3)
  node[left]
  {$\lambda^{(2)}$};
